1 10 20
100 200 125
201 210 89
900 1000 174
65 10 113
1 1 1
99 100 26
1 6 9
1 999 179
1 1000 179
56 98 119
23 87 116
78 63 116
98 5 119
2 89 116
96 135 122
36 85 116
23 50 112
69 85 116
12 10 15
5 58 113
26 87 116
98 56 119
285 999 179
1 9999 262
9999 5 262
74 63 116
98 52 119
5 78 116
36 4 112
454 89 144
6 75 116
41 96 116
25 98 119
326 1 131
1 5 8
69 10 113
25 2 24
87 7 116
45 6 112
25 9 24
6 7 17
74 45 116
85 69 116
32 1 112
47 1 112
65 45 113
74 14 116
65 78 116
32 45 110
25 85 116
36 55 113
36 45 110
25 1 24
87 45 116
36 45 110
96 45 116
32 45 110
147 123 122
52 4 112
125 45 119
36 74 116
25 89 116
47 123 119
321 456 144
12 74 116
5 74 116
45 87 116
26 1 24
75 54 116
65 45 113
25 87 116
36 78 116
123 48 119
258 45 128
32 45 110
82 14 116
74 78 36
13 25 24
45 758 171
147 4 122
741 45 171
25 52 112
65 45 113
28 78 116
65 74 116
1 1 1
99 99 26
77 1 116
25 68 113
78 41 116
247 45 128
14 26 24
87 25 116
147 356 144
98 45 119
41 25 112
87 65 116
14 78 116
25 32 112
85 12 116
74 65 116
28 74 116
65 82 116
71 47 113
54 78 116
65 78 116
23 45 112
87 74 111
15 51 112
23 1 21
15 87 116
54 1 113
57 45 113
82 74 111
14 74 116
74 74 23
54 87 116
123 547 144
148 632 144
475 741 171
235 714 171
12 45 112
74 54 116
147 852 171
87 147 122
85 78 111
36 98 119
41 52 110
71 456 144
874 4 179
54 45 113
52 14 112
84 45 116
521 145 144
874 123 179
87 12 116
74 45 116
28 74 116
12 21 21
58 13 113
87 45 116
147 13 122
85 741 171
123 74 119
147 123 122
68 85 116
1238 54 182
25 7897 262
124 321 131
147 852 171
36 8 112
2 6878 262
54 1 113
