1 1000000 525
632930 816488 504
350019 43796 443
219538 214957 386
697637 110218 509
779061 482963 509
771895 636535 504
473499 804370 509
652278 761618 504
627730 979648 525
849941 854866 419
789813 807818 468
122359 647133 509
696584 374494 509
193037 148956 383
384917 518898 470
844184 86074 525
159109 634938 509
974602 74452 525
449570 623492 470
403488 768550 509
839579 389938 525
246839 93065 443
150748 346092 443
958206 277623 525
867396 680482 525
495918 962314 525
789473 24472 509
407698 7649 443
181917 53192 383
895508 213144 525
970087 658436 525
817391 633430 504
632097 916072 525
345071 97796 443
206190 601066 470
358295 950882 525
572439 192924 470
186736 143164 383
498641 723593 509
990222 827364 525
725284 95812 509
747024 180582 509
447969 641313 509
96538 316296 443
2187 872488 525
978617 186888 525
989191 841878 507
330724 997332 525
639453 517951 509
494935 84121 449
956253 995730 458
404853 277792 441
935280 763458 525
83786 585853 470
893429 639777 525
36905 213411 383
368324 694414 509
76553 785881 509
69904 144849 375
699314 68281 509
152657 631780 509
155829 363699 443
855690 564474 525
790642 718177 468
948577 128148 525
37518 192148 383
95771 381294 443
57554 59360 273
647543 262113 509
207827 410442 449
681663 344023 509
793617 51021 509
855093 250712 525
147400 852413 525
829263 794754 468
235038 291985 407
179216 911166 525
695362 948661 525
45678 48876 314
852391 633228 525
366551 578468 470
644847 363632 509
449362 318875 449
144286 177823 383
814373 858465 525
610605 543396 452
250179 484636 449
830239 38045 509
746855 250884 509
472266 245749 449
310989 417982 449
586365 612682 403
770827 625587 509
966462 95662 525
560278 923039 525
529495 538961 377
155369 453240 449
19681 826556 509
638169 325787 509
765780 934665 525
566315 151236 470
284677 721056 509
584661 576259 434
870827 412619 525
868279 601180 525
461306 913768 525
489329 903770 525
329980 586498 470
580827 287144 470
376823 447453 449
670779 13781 509
570270 483841 470
622373 902297 525
287902 319875 389
253871 561593 470
685026 851970 525
137938 395133 443
220846 54114 386
278171 550492 470
866412 752531 525
61635 556441 470
401359 829702 509
737565 74633 509
231361 951529 525
92947 854530 525
300107 718087 509
326411 873564 525
613658 688500 509
419476 82770 449
792536 87284 509
873653 782862 525
773970 438993 509
370525 345420 441
959046 122513 525
632624 237029 509
827631 556237 509
893060 328641 525
292128 388197 441
501284 537654 470
579535 720095 509
182835 603913 470
498087 896885 525
368616 335536 441
838777 520960 525
110587 86026 354
982652 431071 525
620738 781914 509
872245 804720 525
995180 445381 525
468049 891284 525
908422 251201 525
679701 143553 509
892418 707695 525
631677 379651 509
188860 559897 470
905754 321061 525
323235 875162 525
76093 424202 449
569716 738489 509
572043 4978 470
359095 927694 525
576052 175974 470
877470 386403 525
729537 130012 509
442204 259102 449
889610 262137 525
121106 503167 449
276331 968243 525
737802 408741 509
671104 839455 525
261348 179483 443
341478 117223 443
792139 863963 525
58374 120609 354
88241 705301 509
409040 781849 509
482293 329236 449
297753 957190 525
773184 449753 509
740751 256172 509
35528 858969 525
282249 873874 525
531331 995842 525
130056 219191 386
401009 560312 470
593322 213531 470
118076 741261 509
834280 744043 468
343851 567744 470
413468 633555 509
307104 273204 389
153522 753894 509
633829 689787 442
131508 129002 344
438204 669330 509
950348 100364 525
294353 137450 443
408211 935473 525
914290 501805 525
