898484 555055 525
164546 934949 525
442293 819142 509
413117 184717 449
298882 34646 443
578212 480633 470
708038 156780 509
185965 450272 449
310158 59874 443
906959 55002 525
259357 552590 470
754458 198318 509
215657 849166 525
122485 189618 383
824794 117126 509
970027 382192 525
669937 232171 509
468275 380037 449
739522 689590 504
965390 650422 525
184419 59854 383
417193 376366 449
36087 235481 443
736700 194224 509
718899 704930 411
576255 476859 470
963445 352964 525
328297 585042 470
524754 43698 470
844952 802380 525
729870 433536 509
523046 943100 525
68866 401062 443
800862 444623 509
384583 731279 509
735137 957308 525
862386 665370 525
949473 818831 525
609217 975141 525
522152 567379 452
212243 522404 470
966679 912813 507
539101 39302 470
577597 157822 470
192102 597404 470
70272 280915 443
842149 138349 525
620872 950040 525
347699 495533 449
934285 599027 525
566357 432657 470
447368 423002 418
707385 647341 504
210042 435467 449
17197 282121 443
564668 94307 470
45608 233753 443
948611 142999 525
648438 97516 509
342920 734969 509
338370 959191 525
21711 780691 509
861835 396213 525
571645 339561 470
410598 23064 449
890332 724075 525
53550 748608 509
516814 441113 470
681838 522359 509
494027 424201 444
527033 220678 470
320040 906588 525
628846 644784 416
815682 87779 509
418138 601290 470
891325 931453 476
806201 816427 406
342245 368471 441
958465 944876 414
106577 520184 470
760400 516957 509
351901 957466 525
69900 17358 340
190568 263435 443
913992 457579 525
378052 768402 509
880008 143162 525
743512 996807 525
490698 759950 509
325297 908934 525
853579 397062 525
239597 123442 443
414762 453986 418
271345 323449 389
783172 69375 509
818467 491682 509
975339 723959 525
111067 720718 509
616676 747748 509
981838 5055 525
524200 577381 452
407040 51852 443
616123 11601 470
450712 630376 509
201651 568322 470
538037 556939 452
966591 52091 525
969800 280173 525
305376 802609 509
348357 596464 470
11957 249448 443
654273 374856 509
115542 215996 383
257757 828155 509
896373 355869 525
745559 778876 468
540822 939536 525
712718 143996 509
236615 84934 443
715382 10740 509
247241 70854 443
134170 374058 443
210791 771380 509
277778 74059 443
420401 510236 444
466374 585153 470
973572 557200 525
464041 569706 470
157415 264730 443
546831 3695 470
243939 672742 509
19067 582462 470
954835 77097 525
787223 693306 504
381371 379209 379
337381 277947 389
702127 813973 504
714916 403254 509
805640 705375 468
488257 813467 509
894236 78948 525
224451 380948 443
92676 228302 386
113437 688386 509
629642 267276 509
426835 869914 525
108560 512427 470
209122 729739 509
422177 139080 449
534020 406272 470
275778 826995 509
803780 113394 509
646423 148916 509
519543 189192 470
928885 615295 525
439608 314961 449
460472 764540 509
931285 64060 525
90741 997448 525
90206 295565 443
297271 748991 509
667625 804035 504
524695 866926 525
437202 695330 509
806256 265489 509
298786 429297 449
493225 319208 449
667791 161811 509
872615 158866 525
135836 391545 443
441758 577825 470
237523 295318 407
781456 677782 504
724357 543456 509
497540 55176 449
794390 281541 509
392273 369579 436
555494 123061 470
52868 89026 351
204713 740416 509
581781 444384 470
481946 50552 449
164160 70402 383
516709 218427 470
512138 780984 509
502484 968604 525
655565 160245 509
61716 722138 509
49095 139468 354
642471 399269 509
83925 266682 443
456653 82459 449
389217 150008 443
39612 668256 509
613434 957424 525
838770 203588 525
142719 72715 375
889744 157829 525
454697 485235 444
25544 959149 525
431987 747226 509
624459 871872 525
591494 158355 470
999507 425455 525
359909 478143 449
326568 530815 470
234609 69270 443
800693 79216 509
45006 237120 443
468131 828725 509
274358 474062 449
596239 68170 470
293998 516097 470
448074 181426 449
289808 726458 509
452500 550296 470
648743 884931 525
449529 810889 509
762144 543837 509
581566 346718 470
469177 337483 449
690022 839059 525
589337 483513 470
199983 722529 509
21119 509580 449
929033 447289 525
731824 360120 509
534026 573697 452
76501 619941 470
334698 85919 443
760379 362831 509
90515 132647 354
226629 823631 509
561522 555943 359
71476 362033 443
191135 852897 525
927551 122636 525
525057 881500 525
922660 574011 525
2710 804631 509
401222 361900 436
661064 5744 509
359529 261144 441
801365 481739 509
118787 270288 443
127511 211996 383
832450 682403 504
871633 828461 525
485658 300315 449
290847 209658 443
