1 10 20
100 200 125
201 210 89
900 1000 174
1 2 2
999998 999999 259
1 999999 525
83 88 111
39 47 110
16 20 21
66 94 116
67 81 116
8 75 116
28 68 113
50 83 116
96 97 119
45 86 116
44 50 105
19 40 112
26 83 116
45 88 116
69 75 116
45 55 113
65 84 116
65 74 116
15 50 112
57 79 116
40 44 110
53 80 116
20 91 116
9 16 20
85 86 31
88 94 106
27 83 116
94 98 119
47 80 116
60 94 116
38 60 113
69 96 116
14 55 113
12 79 116
25 41 112
98 100 26
37 86 116
4 60 113
48 52 25
264 677 145
784 859 148
897 906 117
860 869 148
248 406 144
602 670 145
700 834 171
502 787 171
174 287 128
28 125 119
177 379 144
765 857 153
390 828 171
357 787 171
444 651 145
342 955 179
872 926 148
917 958 174
60 510 144
369 405 121
158 889 179
746 912 179
695 926 179
197 200 120
475 884 179
496 746 171
700 807 171
472 860 171
63 80 116
912 932 130
989 996 112
834 963 179
351 807 171
670 931 179
913 957 174
680 784 171
5 630 144
590 602 119
399 816 171
2989 3526 199
3045 5399 238
635 1117 179
9742 9852 211
9529 9555 105
5966 7639 262
479 6502 262
2363 2474 209
4984 6207 262
5827 9180 262
6194 8313 257
7143 7556 239
3558 3972 238
6129 8546 262
1739 3182 217
2775 4279 238
6037 9691 262
7218 9730 260
4193 5378 215
6213 6655 244
8657 9407 260
7387 8394 252
891 5590 238
716 5000 238
162 518 144
553 6930 262
9791 9974 242
9409 9525 198
8525 9519 260
8590 9616 260
7438 7548 208
100 8214 262
7896 8866 252
8070 8927 234
3090 6042 238
461 8186 262
6295 8299 257
3015 3193 199
6940 7926 257
94526 99786 328
84677 93125 333
19878 99387 351
81838 82331 289
89787 92518 333
37378 50467 314
25090 35723 324
70951 90835 351
38369 94265 351
21697 30993 308
63985 98212 351
91502 99439 328
90170 93394 333
72033 77058 351
94870 99893 328
98202 99458 328
31145 91810 351
71690 82879 351
48428 83615 351
68539 77593 351
16761 58391 340
20461 65624 340
32038 68789 340
17606 66013 340
45974 70039 340
27455 79690 351
2836 35003 311
44676 86641 351
3756 41189 324
67773 83982 351
16410 70577 340
99598 99874 328
56923 90189 351
50388 61464 340
12747 52524 324
32641 73141 340
12165 59742 340
87666 96538 333
671822 909837 525
804857 971145 525
280019 996529 525
397343 510873 449
994261 998693 440
208314 259766 443
785994 986809 525
404434 969087 525
836144 914945 525
594813 703204 509
251941 488848 449
816035 816385 282
574726 762639 509
683393 751885 504
98870 745061 509
232282 419218 449
710407 983261 525
956863 995669 458
123288 733098 509
677932 909073 525
220447 537636 470
734280 971440 525
502323 626460 509
434232 988860 525
409120 757204 509
232097 457496 449
721136 923566 525
902354 981562 507
154778 994383 525
58759 479774 449
890301 989275 507
747721 846502 525
271378 638172 509
513153 525413 439
612246 884892 525
310842 700706 509
340761 863923 525
970435 970585 321
