........................
----------------------------------------------------------------------
Ran 24 tests in 15.089s

OK
525
Name             Stmts   Miss Branch BrPart  Cover   Missing
------------------------------------------------------------
Collatz.py          60      1     24      1    98%   64->65, 65
TestCollatz.py     105      0      0      0   100%
------------------------------------------------------------
TOTAL              165      1     24      1    99%
